{
	"vocabularyData": {
		"properties": {
			"uri": {
				"type": "keyword",
				"store": "true",
				"index": "true"
			},
			"lovUri": {
				"type": "keyword",
				"store": "false",
				"index": "true"
			},
			"title": {
				"type": "keyword",
				"store": "false",
				"index": "true"
			},
			"prefix": {
				"type": "keyword",
				"store": "false",
				"index": "true"
			},
			"homepage": {
				"type": "keyword",
				"store": "false",
				"index": "true"
			},
			"description": {
				"type": "keyword",
				"store": "false",
				"index": "true"
			}
		}
	}
}